{
  "extract_dir": "",
  "hash": "6495b414decce8d6dec426032138cdf2e3cdf1f3",
  "log_url": "https://storage.googleapis.com/nativeclient-once/log/binutils_x86_64_linux_59e551448b8b90043058607ce5bc683086bbace5.log",
  "name": "binutils_x86_64_linux.tgz",
  "tar_src_dir": "",
  "url": "https://storage.googleapis.com/nativeclient-once/object/binutils_x86_64_linux_59e551448b8b90043058607ce5bc683086bbace5.tgz"
}