{
  "extract_dir": "",
  "hash": "5184c0fd9250837f338937aa9e47e5226612b0db",
  "log_url": "https://storage.googleapis.com/nativeclient-once/log/compiler_rt_bc_arm_bc_39794533c591535eae94fbbf50f509fa3448168c.log",
  "name": "compiler_rt_bc_arm_bc.tgz",
  "tar_src_dir": "",
  "url": "https://storage.googleapis.com/nativeclient-once/object/compiler_rt_bc_arm_bc_39794533c591535eae94fbbf50f509fa3448168c.tgz"
}