{
  "extract_dir": "",
  "hash": "642c0e64d46e3cfe4632e88b05d306f8089b96c8",
  "log_url": "https://storage.googleapis.com/nativeclient-once/log/core_sdk_libs_le32_2286d7abe3724abbeb130278e5c26ad175f7965c.log",
  "name": "core_sdk_libs_le32.tgz",
  "tar_src_dir": "",
  "url": "https://storage.googleapis.com/nativeclient-once/object/core_sdk_libs_le32_2286d7abe3724abbeb130278e5c26ad175f7965c.tgz"
}