{
  "extract_dir": "",
  "hash": "ff2da9688576a206bf941eab6f41aaf7f70f424a",
  "log_url": "https://storage.googleapis.com/nativeclient-once/log/core_sdk_libs_mipsel_0dc60881717fc0541180d549723e9d334a2042d7.log",
  "name": "core_sdk_libs_mipsel.tgz",
  "tar_src_dir": "",
  "url": "https://storage.googleapis.com/nativeclient-once/object/core_sdk_libs_mipsel_0dc60881717fc0541180d549723e9d334a2042d7.tgz"
}