{
  "extract_dir": "",
  "hash": "fc21f2590686a4f379ea6db6708a3b50b6e0938a",
  "log_url": "https://storage.googleapis.com/nativeclient-once/log/libs_support_translator_x86_32_7603ed947ac0b07a1664f55b9de6ae399b9d6dbc.log",
  "name": "libs_support_translator_x86_32.tgz",
  "tar_src_dir": "",
  "url": "https://storage.googleapis.com/nativeclient-once/object/libs_support_translator_x86_32_7603ed947ac0b07a1664f55b9de6ae399b9d6dbc.tgz"
}