{
  "extract_dir": "",
  "hash": "8392cc35ccd4293c91c7184ee2c85ea70f85b681",
  "log_url": "https://storage.googleapis.com/nativeclient-once/log/libs_support_translator_arm_nonsfi_3a6999746797787a26d66862470efe87bfdc592b.log",
  "name": "libs_support_translator_arm_nonsfi.tgz",
  "tar_src_dir": "",
  "url": "https://storage.googleapis.com/nativeclient-once/object/libs_support_translator_arm_nonsfi_3a6999746797787a26d66862470efe87bfdc592b.tgz"
}