{
  "extract_dir": "",
  "hash": "f1146846c49f7aafd4a6c7d0f76c6c525edf81ae",
  "log_url": "https://storage.googleapis.com/nativeclient-once/log/libs_support_translator_mips32_40bf0141ef74d1e7062e48b8f680943f053de685.log",
  "name": "libs_support_translator_mips32.tgz",
  "tar_src_dir": "",
  "url": "https://storage.googleapis.com/nativeclient-once/object/libs_support_translator_mips32_40bf0141ef74d1e7062e48b8f680943f053de685.tgz"
}