{
  "extract_dir": "",
  "hash": "dbdfd1731e6eaae5ef1954ea5a37472c0cb7e024",
  "log_url": "https://storage.googleapis.com/nativeclient-once/log/llvm_x86_64_linux_56e1bdeeb8ab773fd4f8dc425e4116f49f9a1525.log",
  "name": "llvm_x86_64_linux.tgz",
  "tar_src_dir": "",
  "url": "https://storage.googleapis.com/nativeclient-once/object/llvm_x86_64_linux_56e1bdeeb8ab773fd4f8dc425e4116f49f9a1525.tgz"
}