{
  "extract_dir": "",
  "hash": "04074cb5b00eb4b8a55cf62bc01fd2dff57b9dfa",
  "log_url": "https://storage.googleapis.com/nativeclient-once/log/newlib_i686_50999806817ca13c3c323ed9fe454f2405d8f1d1.log",
  "name": "newlib_i686.tgz",
  "tar_src_dir": "",
  "url": "https://storage.googleapis.com/nativeclient-once/object/newlib_i686_50999806817ca13c3c323ed9fe454f2405d8f1d1.tgz"
}