{
  "extract_dir": "",
  "hash": "430182f3f8f7053da584a51b7341545229dca26e",
  "log_url": "https://storage.googleapis.com/nativeclient-once/log/newlib_x86_64_9eccfe6de37e47997321cc84923741b0a65c1d11.log",
  "name": "newlib_x86_64.tgz",
  "tar_src_dir": "",
  "url": "https://storage.googleapis.com/nativeclient-once/object/newlib_x86_64_9eccfe6de37e47997321cc84923741b0a65c1d11.tgz"
}