{
  "extract_dir": "",
  "hash": "6dc8cb62bd75e82bc0690e44355caabd9c670ee4",
  "log_url": "https://storage.googleapis.com/nativeclient-once/log/unsandboxed_runtime_x86_32_linux_3c87a10d361d84ea16597bf27b77a34a8cb192f8.log",
  "name": "unsandboxed_runtime_x86_32_linux.tgz",
  "tar_src_dir": "",
  "url": "https://storage.googleapis.com/nativeclient-once/object/unsandboxed_runtime_x86_32_linux_3c87a10d361d84ea16597bf27b77a34a8cb192f8.tgz"
}