{
  "extract_dir": "",
  "hash": "ba48d4bd086c80fd09480f9b780c6fd9fc159ec2",
  "log_url": "https://storage.googleapis.com/nativeclient-once/log/sandboxed_translators_790b87308a4e138f7c4ccb3ad44f8a0c99c1952d.log",
  "name": "sandboxed_translators.tgz",
  "tar_src_dir": "",
  "url": "https://storage.googleapis.com/nativeclient-once/object/sandboxed_translators_790b87308a4e138f7c4ccb3ad44f8a0c99c1952d.tgz"
}