{
  "extract_dir": "",
  "hash": "191b8a1022c2b5de2749cc1b43fba4eab4c96d4b",
  "log_url": "https://storage.googleapis.com/nativeclient-once/log/driver_x86_64_linux_892c3cb3168acb41db6ca577da7a26be527b5cf3.log",
  "name": "driver_x86_64_linux.tgz",
  "tar_src_dir": "",
  "url": "https://storage.googleapis.com/nativeclient-once/object/driver_x86_64_linux_892c3cb3168acb41db6ca577da7a26be527b5cf3.tgz"
}