{
  "extract_dir": "",
  "hash": "e85ce368dfb6c4beb7ec3d9ea9469b25c21efcb1",
  "log_url": "https://storage.googleapis.com/nativeclient-once/log/libcxx_x86_64_linux_977075d9f32eee3801b5d56eaa42dc86fff7cab4.log",
  "name": "libcxx_x86_64_linux.tgz",
  "tar_src_dir": "",
  "url": "https://storage.googleapis.com/nativeclient-once/object/libcxx_x86_64_linux_977075d9f32eee3801b5d56eaa42dc86fff7cab4.tgz"
}