{
  "extract_dir": "",
  "hash": "808b997b80eea23b42f7248d128aa5aa11af2f2b",
  "log_url": "https://storage.googleapis.com/nativeclient-once/log/libcxx_arm_8263a70e3b12c300cc68777b4ca7aa9f9b14a7f9.log",
  "name": "libcxx_arm.tgz",
  "tar_src_dir": "",
  "url": "https://storage.googleapis.com/nativeclient-once/object/libcxx_arm_8263a70e3b12c300cc68777b4ca7aa9f9b14a7f9.tgz"
}