{
  "extract_dir": "",
  "hash": "7ae5978d39666678985cf6771710495086f1818c",
  "log_url": "https://storage.googleapis.com/nativeclient-once/log/libcxx_mipsel_c5f8d38f268f2c45f82e3c6693a2d395fe48c306.log",
  "name": "libcxx_mipsel.tgz",
  "tar_src_dir": "",
  "url": "https://storage.googleapis.com/nativeclient-once/object/libcxx_mipsel_c5f8d38f268f2c45f82e3c6693a2d395fe48c306.tgz"
}