{
  "extract_dir": "",
  "hash": "d96c89a820c560496fd29b736d2561402d581d9e",
  "log_url": "https://storage.googleapis.com/nativeclient-once/log/newlib_mipsel_ba8d94d94fa0b529f9634d923a1f5a5a17bbc851.log",
  "name": "newlib_mipsel.tgz",
  "tar_src_dir": "",
  "url": "https://storage.googleapis.com/nativeclient-once/object/newlib_mipsel_ba8d94d94fa0b529f9634d923a1f5a5a17bbc851.tgz"
}