{
  "extract_dir": "",
  "hash": "4f52b2f3fdf0633d50774b416f89bf825af04286",
  "log_url": "https://storage.googleapis.com/nativeclient-once/log/newlib_x86_64_bc_4120b5e9e4a4f878803ad451dbce96a65d2a12f0.log",
  "name": "newlib_x86_64_bc.tgz",
  "tar_src_dir": "",
  "url": "https://storage.googleapis.com/nativeclient-once/object/newlib_x86_64_bc_4120b5e9e4a4f878803ad451dbce96a65d2a12f0.tgz"
}