{
  "extract_dir": "",
  "hash": "9060c14b7c2ef8b3067dc2bd48d520c8576c2fe9",
  "log_url": "https://storage.googleapis.com/nativeclient-once/log/unsandboxed_runtime_x86_64_linux_0e1a816e2c90f02500ec6437522f694312b2f1e1.log",
  "name": "unsandboxed_runtime_x86_64_linux.tgz",
  "tar_src_dir": "",
  "url": "https://storage.googleapis.com/nativeclient-once/object/unsandboxed_runtime_x86_64_linux_0e1a816e2c90f02500ec6437522f694312b2f1e1.tgz"
}